…
``` r
# Change the dnds ratio to a numeric value 
plant_dnds <- plant_dnds %>%
  mutate(dnds=as.numeric(dnds))

plant_dnds %>%
  group_by(Gene) %>%
  tally()
```

    ## # A tibble: 3,548 × 2
    ##    Gene          n
    ##    <chr>     <int>
    ##  1 OG0017031    12
    ##  2 OG0017034    12
    ##  3 OG0017084    12
    ##  4 OG0017089    12
    ##  5 OG0017091    12
    ##  6 OG0017095    12
    ##  7 OG0017099    12
    ##  8 OG0017100    12
    ##  9 OG0017101    12
    ## 10 OG0017112    12
    ## # ℹ 3,538 more rows

``` r
# 3,548 genes total 

# How many genes were above 1 
plant_dnds%>%
  filter(dnds>10) %>%
  distinct(Gene) # 1831 
```

    ## # A tibble: 1,831 × 1
    ##    Gene     
    ##    <chr>    
    ##  1 OG0019756
    ##  2 OG0020196
    ##  3 OG0020407
    ##  4 OG0020491
    ##  5 OG0020524
    ##  6 OG0020558
    ##  7 OG0020566
    ##  8 OG0020602
    ##  9 OG0020681
    ## 10 OG0020693
    ## # ℹ 1,821 more rows

``` r
# How many orthologs total
gene_no1<-plant_dnds %>%
  group_by(Gene) %>%
  tally()
# 3,548 genes total 
gene_no1
```

    ## # A tibble: 3,548 × 2
    ##    Gene          n
    ##    <chr>     <int>
    ##  1 OG0017031    12
    ##  2 OG0017034    12
    ##  3 OG0017084    12
    ##  4 OG0017089    12
    ##  5 OG0017091    12
    ##  6 OG0017095    12
    ##  7 OG0017099    12
    ##  8 OG0017100    12
    ##  9 OG0017101    12
    ## 10 OG0017112    12
    ## # ℹ 3,538 more rows

``` r
# How many found in all 12 species 
gene_no1 %>%
  filter(n==12) #389???  
```

    ## # A tibble: 389 × 2
    ##    Gene          n
    ##    <chr>     <int>
    ##  1 OG0017031    12
    ##  2 OG0017034    12
    ##  3 OG0017084    12
    ##  4 OG0017089    12
    ##  5 OG0017091    12
    ##  6 OG0017095    12
    ##  7 OG0017099    12
    ##  8 OG0017100    12
    ##  9 OG0017101    12
    ## 10 OG0017112    12
    ## # ℹ 379 more rows

``` r
# Before filtering for genes under 10 
# How many orthologs total
gene_no_test<-plant_dnds %>%
  group_by(Gene) %>%
  tally()
gene_no_test
```

    ## # A tibble: 3,548 × 2
    ##    Gene          n
    ##    <chr>     <int>
    ##  1 OG0017031    12
    ##  2 OG0017034    12
    ##  3 OG0017084    12
    ##  4 OG0017089    12
    ##  5 OG0017091    12
    ##  6 OG0017095    12
    ##  7 OG0017099    12
    ##  8 OG0017100    12
    ##  9 OG0017101    12
    ## 10 OG0017112    12
    ## # ℹ 3,538 more rows

``` r
# 3,548 genes total 

# How many found in all 12 species before filtering  
gene_no_test %>%
  filter(n==12) #389 genes 
```

    ## # A tibble: 389 × 2
    ##    Gene          n
    ##    <chr>     <int>
    ##  1 OG0017031    12
    ##  2 OG0017034    12
    ##  3 OG0017084    12
    ##  4 OG0017089    12
    ##  5 OG0017091    12
    ##  6 OG0017095    12
    ##  7 OG0017099    12
    ##  8 OG0017100    12
    ##  9 OG0017101    12
    ## 10 OG0017112    12
    ## # ℹ 379 more rows

``` r
# Remove abnormally high dnds values 
plant_dnds2<-plant_dnds%>%
  filter(dnds<10)
plant_dnds2 # 18,565  genes 
```

    ## # A tibble: 18,565 × 7
    ##    Code                            dnds Gene  Species Mutualist Pair  Transition
    ##    <chr>                          <dbl> <chr> <chr>   <chr>     <chr> <chr>     
    ##  1 Calliandra_eriophylla_NODE_1… 0.105  OG00… Callia… M         c     loss      
    ##  2 Calliandra_eriophylla_NODE_1… 0.361  OG00… Callia… M         c     loss      
    ##  3 Calliandra_eriophylla_NODE_1… 0.438  OG00… Callia… M         c     loss      
    ##  4 Calliandra_eriophylla_NODE_1… 0.0583 OG00… Callia… M         c     loss      
    ##  5 Calliandra_eriophylla_NODE_1… 0.160  OG00… Callia… M         c     loss      
    ##  6 Calliandra_eriophylla_NODE_1… 0.487  OG00… Callia… M         c     loss      
    ##  7 Calliandra_eriophylla_NODE_1… 0.135  OG00… Callia… M         c     loss      
    ##  8 Calliandra_eriophylla_NODE_1… 0.276  OG00… Callia… M         c     loss      
    ##  9 Calliandra_eriophylla_NODE_1… 0.0001 OG00… Callia… M         c     loss      
    ## 10 Calliandra_eriophylla_NODE_1… 0.0818 OG00… Callia… M         c     loss      
    ## # ℹ 18,555 more rows
…
``` r
# How many orthologs total
gene_no<-plant_dnds2 %>%
  group_by(Gene) %>%
  tally()
# 3,521 genes total 

# How many found in all 12 species 
gene_no %>%
  filter(n==12) #210 
```

    ## # A tibble: 210 × 2
    ##    Gene          n
    ##    <chr>     <int>
    ##  1 OG0017034    12
    ##  2 OG0017089    12
    ##  3 OG0017091    12
    ##  4 OG0017095    12
    ##  5 OG0017100    12
    ##  6 OG0017101    12
    ##  7 OG0017112    12
    ##  8 OG0017145    12
    ##  9 OG0017149    12
    ## 10 OG0017163    12
    ## # ℹ 200 more rows
…
``` r
f_list<-gene_count("f") # 964 
f_list2<-f_list$Gene

# Which one is significant? Calliandra pair 
plant_sig<- plant_dnds2%>%
  filter(Pair=="c")
plant_sig
```

    ## # A tibble: 3,237 × 7
    ##    Code                            dnds Gene  Species Mutualist Pair  Transition
    ##    <chr>                          <dbl> <chr> <chr>   <chr>     <chr> <chr>     
    ##  1 Calliandra_eriophylla_NODE_1… 0.105  OG00… Callia… M         c     loss      
    ##  2 Calliandra_eriophylla_NODE_1… 0.361  OG00… Callia… M         c     loss      
    ##  3 Calliandra_eriophylla_NODE_1… 0.438  OG00… Callia… M         c     loss      
    ##  4 Calliandra_eriophylla_NODE_1… 0.0583 OG00… Callia… M         c     loss      
    ##  5 Calliandra_eriophylla_NODE_1… 0.160  OG00… Callia… M         c     loss      
    ##  6 Calliandra_eriophylla_NODE_1… 0.487  OG00… Callia… M         c     loss      
    ##  7 Calliandra_eriophylla_NODE_1… 0.135  OG00… Callia… M         c     loss      
    ##  8 Calliandra_eriophylla_NODE_1… 0.276  OG00… Callia… M         c     loss      
    ##  9 Calliandra_eriophylla_NODE_1… 0.0001 OG00… Callia… M         c     loss      
    ## 10 Calliandra_eriophylla_NODE_1… 0.0818 OG00… Callia… M         c     loss      
    ## # ℹ 3,227 more rows
…
# A lot of genes under positive selection here 
pos_genes_full %>%
  distinct(Gene) # 797
```

    ## # A tibble: 797 × 1
    ##    Gene     
    ##    <chr>    
    ##  1 OG0035997
    ##  2 OG0036076
    ##  3 OG0029203
    ##  4 OG0020358
    ##  5 OG0029082
    ##  6 OG0033571
    ##  7 OG0028080
    ##  8 OG0028054
    ##  9 OG0019821
    ## 10 OG0028157
    ## # ℹ 787 more rows
…
``` r
library(ggh4x)

# Make separate for each species and then combine at the end! 
# violin plots 
plant_dnds_sym2
```

    ## # A tibble: 18,565 × 8
    ##    Code              dnds Gene  Species Mutualist Pair  Transition SymbioticGene
    ##    <chr>            <dbl> <chr> <chr>   <chr>     <chr> <chr>      <chr>        
    ##  1 Calliandra_eri… 0.105  OG00… Callia… M         c     loss       N            
    ##  2 Calliandra_eri… 0.361  OG00… Callia… M         c     loss       N            
    ##  3 Calliandra_eri… 0.438  OG00… Callia… M         c     loss       N            
    ##  4 Calliandra_eri… 0.0583 OG00… Callia… M         c     loss       N            
    ##  5 Calliandra_eri… 0.160  OG00… Callia… M         c     loss       N            
    ##  6 Calliandra_eri… 0.487  OG00… Callia… M         c     loss       N            
    ##  7 Calliandra_eri… 0.135  OG00… Callia… M         c     loss       N            
    ##  8 Calliandra_eri… 0.276  OG00… Callia… M         c     loss       N            
    ##  9 Calliandra_eri… 0.0001 OG00… Callia… M         c     loss       N            
    ## 10 Calliandra_eri… 0.0818 OG00… Callia… M         c     loss       N            
    ## # ℹ 18,555 more rows
…
``` r
# This has the whole legume dataset now 

# Count how many species each gene is in (shared by)
symcount<-plant_dnds_sym2 %>%
  count(Gene)
symcount
```

    ## # A tibble: 3,521 × 2
    ##    Gene          n
    ##    <chr>     <int>
    ##  1 OG0017031    11
    ##  2 OG0017034    12
    ##  3 OG0017084    11
    ##  4 OG0017089    12
    ##  5 OG0017091    12
    ##  6 OG0017095    12
    ##  7 OG0017099    11
    ##  8 OG0017100    12
    ##  9 OG0017101    12
    ## 10 OG0017112    12
    ## # ℹ 3,511 more rows
…
## Symbiotitic analysis

``` r
# Filter data for sym genes 
plant_sym <- plant_dnds2 %>%
  filter(Gene %in% sym_genes$Gene)
plant_sym # 137 rows 
```

    ## # A tibble: 135 × 7
    ##    Code                            dnds Gene  Species Mutualist Pair  Transition
    ##    <chr>                          <dbl> <chr> <chr>   <chr>     <chr> <chr>     
    ##  1 Calliandra_eriophylla_NODE_1… 0.109  OG00… Callia… M         c     loss      
    ##  2 Calliandra_eriophylla_NODE_1… 0.280  OG00… Callia… M         c     loss      
    ##  3 Calliandra_eriophylla_NODE_2… 0.169  OG00… Callia… M         c     loss      
    ##  4 Calliandra_eriophylla_NODE_6… 0.0838 OG00… Callia… M         c     loss      
    ##  5 Calliandra_eriophylla_NODE_7… 0.144  OG00… Callia… M         c     loss      
    ##  6 Calliandra_humilis_NODE_1443… 0.0852 OG00… Callia… F         c     loss      
    ##  7 Calliandra_humilis_NODE_1965… 0.121  OG00… Callia… F         c     loss      
    ##  8 Calliandra_humilis_NODE_2525… 0.0445 OG00… Callia… F         c     loss      
    ##  9 Calliandra_humilis_NODE_5234… 0.0592 OG00… Callia… F         c     loss      
    ## 10 Calliandra_humilis_NODE_6872… 0.327  OG00… Callia… F         c     loss      
    ## # ℹ 125 more rows
…
  subset(!(Pair=="b" & Gene=="OG0031042")) %>%
  subset(!(Pair=="b" & Gene=="OG0032198")) %>%
  subset(!(Pair=="b" & Gene=="OG0037224")) %>%
  subset(!(Pair=="c" & Gene=="OG0035706")) %>%
  subset(!(Pair=="d" & Gene=="OG0032198")) %>%
  subset(!(Pair=="d" & Gene=="OG0037224")) %>%
  subset(!(Pair=="e" & Gene=="OG0020658")) %>%
  subset(!(Pair=="e" & Gene=="OG0028014")) %>%
  subset(!(Pair=="e" & Gene=="OG0032198")) %>%
  subset(!(Pair=="f" & Gene=="OG0020658")) %>%
  subset(!(Pair=="f" & Gene=="OG0035706"))
plant_sym3
```

    ## # A tibble: 122 × 9
    ##    Code             dnds Gene  Species Mutualist Pair  Transition MutualistLabel
    ##    <chr>           <dbl> <chr> <chr>   <chr>     <chr> <chr>      <chr>         
    ##  1 Calliandra_er… 0.109  OG00… Callia… M         c     mutualism… mutualist     
    ##  2 Calliandra_er… 0.280  OG00… Callia… M         c     mutualism… mutualist     
    ##  3 Calliandra_er… 0.169  OG00… Callia… M         c     mutualism… mutualist     
    ##  4 Calliandra_er… 0.0838 OG00… Callia… M         c     mutualism… mutualist     
    ##  5 Calliandra_er… 0.144  OG00… Callia… M         c     mutualism… mutualist     
    ##  6 Calliandra_hu… 0.0852 OG00… Callia… F         c     mutualism… non-symbiotic 
    ##  7 Calliandra_hu… 0.121  OG00… Callia… F         c     mutualism… non-symbiotic 
    ##  8 Calliandra_hu… 0.0445 OG00… Callia… F         c     mutualism… non-symbiotic 
    ##  9 Calliandra_hu… 0.0592 OG00… Callia… F         c     mutualism… non-symbiotic 
    ## 10 Calliandra_hu… 0.327  OG00… Callia… F         c     mutualism… non-symbiotic 
    ## # ℹ 112 more rows
    ## # ℹ 1 more variable: PairLabel <chr>
…
``` r
sym_plot_pl2
```

    ## # A tibble: 52 × 8
    ## # Groups:   Pair [6]
    ##    Pair  Transition     Gene           M      F    minus    Diff Pair2     
    ##    <chr> <chr>          <chr>      <dbl>  <dbl>    <dbl>   <dbl> <chr>     
    ##  1 c     mutualism loss OG0035204 0.330  0.327   0.00353 0.00353 Calliandra
    ##  2 b     mutualism loss OG0026688 0.112  0.106   0.00565 0.00565 Dalea     
    ##  3 c     mutualism loss OG0017112 0.109  0.120  -0.0113  0.0113  Calliandra
    ##  4 c     mutualism loss OG0019914 0.109  0.121  -0.0113  0.0113  Calliandra
    ##  5 c     mutualism loss OG0021088 0.0365 0.0144  0.0220  0.0220  Calliandra
    ##  6 b     mutualism loss OG0020600 0.145  0.111   0.0344  0.0344  Dalea     
    ##  7 b     mutualism loss OG0019914 0.298  0.336  -0.0382  0.0382  Dalea     
    ##  8 e     mutualism gain OG0021088 0.0441 0.0001  0.0440  0.0440  Senna2    
    ##  9 a     mutualism loss OG0035204 0.318  0.382  -0.0637  0.0637  Mimosa    
    ## 10 b     mutualism loss OG0019964 0.0685 0.136  -0.0672  0.0672  Dalea     
    ## # ℹ 42 more rows
…
``` r
# Change the dnds ratio to a numeric value 
plant_2ratio <- plant_2ratio %>%
  mutate(dnds=as.numeric(dnds))

plant_2ratio %>%
  group_by(Gene) %>%
  tally()
```

    ## # A tibble: 300 × 2
    ##    Gene          n
    ##    <chr>     <int>
    ##  1 OG0019756    12
    ##  2 OG0019764    12
    ##  3 OG0019780     6
    ##  4 OG0019782    12
    ##  5 OG0019804    12
    ##  6 OG0019805    12
    ##  7 OG0019810    12
    ##  8 OG0019818    12
    ##  9 OG0019826     6
    ## 10 OG0019849    12
    ## # ℹ 290 more rows
…
    ## # A tibble: 0 × 8
    ## # ℹ 8 variables: Code <chr>, dnds <dbl>, Gene <chr>, Estimate <chr>,
    ## #   Species <chr>, Mutualist <chr>, Pair <chr>, Transition <chr>

``` r
# Check the number of genes 
plant_2ratio2 %>%
  group_by(Gene) %>%
  tally() # 277 genes 
```

    ## # A tibble: 285 × 2
    ##    Gene          n
    ##    <chr>     <int>
    ##  1 OG0019756    12
    ##  2 OG0019764    12
    ##  3 OG0019780     6
    ##  4 OG0019782    12
    ##  5 OG0019804    12
    ##  6 OG0019805    12
    ##  7 OG0019810    12
    ##  8 OG0019818    12
    ##  9 OG0019826     6
    ## 10 OG0019849    12
    ## # ℹ 275 more rows
…
    ## 
    ##  Wilcoxon signed rank test with continuity correction
    ## 
    ## data:  plantb_new2$M and plantb_new2$F
    ## V = 21299, p-value = 0.9767
    ## alternative hypothesis: true location shift is less than 0

``` r
gene_count2("a") # 273 genes 
```

    ## # A tibble: 273 × 2
    ##    Gene          n
    ##    <chr>     <int>
    ##  1 OG0019756     2
    ##  2 OG0019764     2
    ##  3 OG0019782     2
    ##  4 OG0019804     2
    ##  5 OG0019805     2
    ##  6 OG0019810     2
    ##  7 OG0019818     2
    ##  8 OG0019849     2
    ##  9 OG0019850     2
    ## 10 OG0019851     2
    ## # ℹ 263 more rows
…
``` r
# Change labels 
plant_2ratio2<-plant_2ratio2 %>%
  mutate_if(is.character, 
                str_replace_all, pattern = "_", replacement = " ")

# Boxplot plot  
plant_2ratio2_simple <- plant_2ratio2%>%
  filter(Pair=="f" | Pair=="a") %>%
  mutate_at("Transition", str_replace, "gain", "mutualism gain") %>%
  mutate_at("Transition", str_replace, "loss", "mutualism loss")
plant_2ratio2_simple
```

    ## # A tibble: 1,096 × 8
    ##    Code                   dnds Gene  Estimate Species Mutualist Pair  Transition
    ##    <chr>                 <dbl> <chr> <chr>    <chr>   <chr>     <chr> <chr>     
    ##  1 Mimosa grahamii      0.302  OG00… loss     Mimosa… F         a     mutualism…
    ##  2 Mimosa aculeaticarpa 0.181  OG00… loss     Mimosa… M         a     mutualism…
    ##  3 Mimosa grahamii      0.157  OG00… loss     Mimosa… F         a     mutualism…
    ##  4 Mimosa aculeaticarpa 0.144  OG00… loss     Mimosa… M         a     mutualism…
    ##  5 Mimosa grahamii      0.184  OG00… loss     Mimosa… F         a     mutualism…
    ##  6 Mimosa aculeaticarpa 0.168  OG00… loss     Mimosa… M         a     mutualism…
    ##  7 Mimosa grahamii      0.0605 OG00… loss     Mimosa… F         a     mutualism…
    ##  8 Mimosa aculeaticarpa 0.127  OG00… loss     Mimosa… M         a     mutualism…
    ##  9 Mimosa aculeaticarpa 0.195  OG00… loss     Mimosa… M         a     mutualism…
    ## 10 Mimosa grahamii      0.391  OG00… loss     Mimosa… F         a     mutualism…
    ## # ℹ 1,086 more rows
…
Add the

``` r
# Prep the data 
lpwg_data3<-lpwg_data2 %>%
  mutate(mutualist=case_when(Fixer=="Yes" ~ "mutualist",
                             Fixer=="No" ~ "non-mutualist")) %>% 
  dplyr::select(Species, mutualist)

lpwg_data2 %>% # 1154 total 
  filter(Fixer=="Yes") #987 
```

    ## # A tibble: 987 × 14
    ##     ...1 Species         Order Family Fixer num_introduced total_area_introduced
    ##    <dbl> <chr>           <chr> <chr>  <fct>          <dbl>                 <dbl>
    ##  1     4 Abarema_brachy… Faba… Fabac… Yes                0                     0
    ##  2     6 Abarema_cochle… Faba… Fabac… Yes                0                     0
    ##  3     9 Abarema_florib… Faba… Fabac… Yes                0                     0
    ##  4    11 Abarema_jupunba Faba… Fabac… Yes                0                     0
    ##  5    16 Abarema_macrad… Faba… Fabac… Yes                0                     0
    ##  6    19 Abarema_piresii Faba… Fabac… Yes                0                     0
    ##  7    20 Abarema_turbin… Faba… Fabac… Yes                0                     0
    ##  8    24 Abrus_precator… Faba… Fabac… Yes                4          148000000000
    ##  9    27 Acacia_alata    Faba… Fabac… Yes                0                     0
    ## 10    28 Acacia_amplice… Faba… Fabac… Yes                0                     0
    ## # ℹ 977 more rows
    ## # ℹ 7 more variables: total_area_native <dbl>, lat_native <dbl>,
    ## #   abs_lat_native <dbl>, annual <dbl>, uses_num_uses <dbl>, invasive <chr>,
    ## #   mutualist <chr>

``` r
lpwg_data2 %>% # 1154 total 
  filter(Fixer=="No") #167 
```

    ## # A tibble: 167 × 14
    ##     ...1 Species         Order Family Fixer num_introduced total_area_introduced
    ##    <dbl> <chr>           <chr> <chr>  <fct>          <dbl>                 <dbl>
    ##  1    96 Acrocarpus_fra… Faba… Fabac… No                 5         6430000000000
    ##  2   212 Aldina_heterop… Faba… Fabac… No                 0                     0
    ##  3   219 Alexa_grandifl… Faba… Fabac… No                 0                     0
    ##  4   228 Amblygonocarpu… Faba… Fabac… No                 0                     0
    ##  5   305 Apuleia_leioca… Faba… Fabac… No                 0                     0
    ##  6   453 Baikiaea_insig… Faba… Fabac… No                 2          256000000000
    ##  7   457 Balsamocarpon_… Faba… Fabac… No                 0                     0
    ##  8   467 Baphiopsis_par… Faba… Fabac… No                 0                     0
    ##  9   472 Batesia_florib… Faba… Fabac… No                 0                     0
    ## 10   475 Bauhinia_acrea… Faba… Fabac… No                 0                     0
    ## # ℹ 157 more rows
    ## # ℹ 7 more variables: total_area_native <dbl>, lat_native <dbl>,
    ## #   abs_lat_native <dbl>, annual <dbl>, uses_num_uses <dbl>, invasive <chr>,
    ## #   mutualist <chr>
…
invasion_data2 %>% 
  group_by(Gene) %>%
  tally() %>%
  filter(n==2)
```

    ## # A tibble: 277 × 2
    ##    Gene          n
    ##    <chr>     <int>
    ##  1 OG0019756     2
    ##  2 OG0019764     2
    ##  3 OG0019782     2
    ##  4 OG0019804     2
    ##  5 OG0019805     2
    ##  6 OG0019810     2
    ##  7 OG0019818     2
    ##  8 OG0019849     2
    ##  9 OG0019850     2
    ## 10 OG0019851     2
    ## # ℹ 267 more rows
…
    ## 
    ##  Wilcoxon signed rank test with continuity correction
    ## 
    ## data:  plantb_new2$N and plantb_new2$Y
    ## V = 7742, p-value < 2.2e-16
    ## alternative hypothesis: true location shift is not equal to 0

``` r
# sig V=30761 p <0.0001 inv-non
# V=7742 non greater than inv 
inv_gene_count(pair="test") # 277 genes 
```

    ## # A tibble: 277 × 2
    ##    Gene          n
    ##    <chr>     <int>
    ##  1 OG0019756     2
    ##  2 OG0019764     2
    ##  3 OG0019782     2
    ##  4 OG0019804     2
    ##  5 OG0019805     2
    ##  6 OG0019810     2
    ##  7 OG0019818     2
    ##  8 OG0019849     2
    ##  9 OG0019850     2
    ## 10 OG0019851     2
    ## # ℹ 267 more rows
…
