…
``` r
# 22 659 rows

# Remove the Sinorhizobium pair - only used in the tree to get better dnds ratios 
rhizobia_dnds<-rhizobia_dnds0 %>% 
  filter(Species!="Sinorhizobium_M4_45") %>%
  filter(Species!="Sinorhizobium_meliloti")

rhizobia_dnds %>%
  group_by(Gene) %>%
  tally() # 2812 genes 
```

    ## # A tibble: 2,812 × 2
    ##    Gene          n
    ##    <chr>     <int>
    ##  1 OG0001153    14
    ##  2 OG0001154    14
    ##  3 OG0001155    14
    ##  4 OG0001156    14
    ##  5 OG0001157    14
    ##  6 OG0001158    14
    ##  7 OG0001159    14
    ##  8 OG0001160    14
    ##  9 OG0001161    14
    ## 10 OG0001162    14
    ## # ℹ 2,802 more rows

``` r
rhizobia_dnds %>%
  group_by(Gene) %>%
  tally() %>%
  filter(n==14) # 438 genes shared before 
```

    ## # A tibble: 438 × 2
    ##    Gene          n
    ##    <chr>     <int>
    ##  1 OG0001153    14
    ##  2 OG0001154    14
    ##  3 OG0001155    14
    ##  4 OG0001156    14
    ##  5 OG0001157    14
    ##  6 OG0001158    14
    ##  7 OG0001159    14
    ##  8 OG0001160    14
    ##  9 OG0001161    14
    ## 10 OG0001162    14
    ## # ℹ 428 more rows

``` r
# Remove abnormally high dnds values 
rhizobia_dnds2<-rhizobia_dnds%>%
  filter(dnds<10)

# are there high dnds ratios? 
rhizobia_dnds%>%
  filter(dnds>10) # Yes indeed 
```

    ## # A tibble: 972 × 6
    ##    Species                      dnds Gene      Mutualist Pair  Transition
    ##    <chr>                       <dbl> <chr>     <chr>     <chr> <chr>     
    ##  1 Cupriavidus_taiwanensis     999   OG0001709 M         g     gain      
    ##  2 Bradyrhizobium_icense       650.  OG0001724 M         b     loss      
    ##  3 Bradyrhizobium_icense       999   OG0001725 M         b     loss      
    ##  4 Cupriavidus_alkaliphilus    999   OG0001743 F         g     gain      
    ##  5 Cupriavidus_taiwanensis     320.  OG0001749 M         g     gain      
    ##  6 Cupriavidus_alkaliphilus    999   OG0001751 F         g     gain      
    ##  7 Cupriavidus_taiwanensis     999   OG0001761 M         g     gain      
    ##  8 Cupriavidus_taiwanensis     249.  OG0001766 M         g     gain      
    ##  9 Paraburkholderia_caribensis  26.8 OG0001766 F         h     gain      
    ## 10 Microvirga_vignae           999   OG0001772 M         d     gain      
    ## # ℹ 962 more rows
…
``` r
# How many orthologs 
rhizobia_dnds2 %>%
  group_by(Gene) %>%
  tally() %>%
  filter(n==14)
```

    ## # A tibble: 277 × 2
    ##    Gene          n
    ##    <chr>     <int>
    ##  1 OG0001154    14
    ##  2 OG0001155    14
    ##  3 OG0001156    14
    ##  4 OG0001161    14
    ##  5 OG0001166    14
    ##  6 OG0001168    14
    ##  7 OG0001169    14
    ##  8 OG0001172    14
    ##  9 OG0001176    14
    ## 10 OG0001177    14
    ## # ℹ 267 more rows

``` r
# 277 genes found in all 14 genomes 

# How many orthologs overall 
rhizobia_dnds2 %>%
  group_by(Gene) %>%
  tally() #2812 
```

    ## # A tibble: 2,812 × 2
    ##    Gene          n
    ##    <chr>     <int>
    ##  1 OG0001153    12
    ##  2 OG0001154    14
    ##  3 OG0001155    14
    ##  4 OG0001156    14
    ##  5 OG0001157    12
    ##  6 OG0001158    12
    ##  7 OG0001159    13
    ##  8 OG0001160    13
    ##  9 OG0001161    14
    ## 10 OG0001162    13
    ## # ℹ 2,802 more rows
…
will_function2("b") # not sig, loss Brady 
```

    ## 
    ##  Wilcoxon signed rank test with continuity correction
    ## 
    ## data:  rhizb_new2$F and rhizb_new2$M
    ## V = 335686, p-value = 0.6718
    ## alternative hypothesis: true location shift is not equal to 0

``` r
gene_count2("b") # 1154 genes 
```

    ## # A tibble: 1,154 × 2
    ##    Gene          n
    ##    <chr>     <int>
    ##  1 OG0001153     2
    ##  2 OG0001154     2
    ##  3 OG0001155     2
    ##  4 OG0001156     2
    ##  5 OG0001157     2
    ##  6 OG0001158     2
    ##  7 OG0001159     2
    ##  8 OG0001160     2
    ##  9 OG0001161     2
    ## 10 OG0001162     2
    ## # ℹ 1,144 more rows
…
    ## 
    ##  Wilcoxon signed rank test with continuity correction
    ## 
    ## data:  rhizb_new2$F and rhizb_new2$M
    ## V = 200434, p-value = 1.048e-06
    ## alternative hypothesis: true location shift is less than 0

``` r
gene_count2("c") # 988 genes 
```

    ## # A tibble: 988 × 2
    ##    Gene          n
    ##    <chr>     <int>
    ##  1 OG0001153     2
    ##  2 OG0001154     2
    ##  3 OG0001155     2
    ##  4 OG0001156     2
    ##  5 OG0001157     2
    ##  6 OG0001158     2
    ##  7 OG0001159     2
    ##  8 OG0001160     2
    ##  9 OG0001161     2
    ## 10 OG0001162     2
    ## # ℹ 978 more rows
…
    ## 
    ##  Wilcoxon signed rank test with continuity correction
    ## 
    ## data:  rhizb_new2$F and rhizb_new2$M
    ## V = 216521, p-value = 2.314e-09
    ## alternative hypothesis: true location shift is less than 0

``` r
gene_count2("d") # 1052 genes 
```

    ## # A tibble: 1,052 × 2
    ##    Gene          n
    ##    <chr>     <int>
    ##  1 OG0001153     2
    ##  2 OG0001154     2
    ##  3 OG0001155     2
    ##  4 OG0001156     2
    ##  5 OG0001157     2
    ##  6 OG0001158     2
    ##  7 OG0001159     2
    ##  8 OG0001160     2
    ##  9 OG0001161     2
    ## 10 OG0001162     2
    ## # ℹ 1,042 more rows
…
    ## 
    ##  Wilcoxon signed rank test with continuity correction
    ## 
    ## data:  rhizb_new2$F and rhizb_new2$M
    ## V = 204387, p-value < 2.2e-16
    ## alternative hypothesis: true location shift is less than 0

``` r
gene_count2("e") #1090 genes 
```

    ## # A tibble: 1,090 × 2
    ##    Gene          n
    ##    <chr>     <int>
    ##  1 OG0001153     2
    ##  2 OG0001154     2
    ##  3 OG0001155     2
    ##  4 OG0001156     2
    ##  5 OG0001157     2
    ##  6 OG0001158     2
    ##  7 OG0001159     2
    ##  8 OG0001160     2
    ##  9 OG0001161     2
    ## 10 OG0001162     2
    ## # ℹ 1,080 more rows
…
    ## 
    ##  Wilcoxon signed rank test with continuity correction
    ## 
    ## data:  rhizb_new2$F and rhizb_new2$M
    ## V = 373359, p-value = 0.00162
    ## alternative hypothesis: true location shift is less than 0

``` r
gene_count2("f") # 1288 genes 
```

    ## # A tibble: 1,288 × 2
    ##    Gene          n
    ##    <chr>     <int>
    ##  1 OG0001153     2
    ##  2 OG0001154     2
    ##  3 OG0001155     2
    ##  4 OG0001156     2
    ##  5 OG0001157     2
    ##  6 OG0001158     2
    ##  7 OG0001159     2
    ##  8 OG0001160     2
    ##  9 OG0001161     2
    ## 10 OG0001162     2
    ## # ℹ 1,278 more rows
…
    ## 
    ##  Wilcoxon signed rank test with continuity correction
    ## 
    ## data:  rhizb_new2$F and rhizb_new2$M
    ## V = 116267, p-value = 0.03017
    ## alternative hypothesis: true location shift is less than 0

``` r
gene_count2("g") # 836 genes 
```

    ## # A tibble: 836 × 2
    ##    Gene          n
    ##    <chr>     <int>
    ##  1 OG0001154     2
    ##  2 OG0001155     2
    ##  3 OG0001156     2
    ##  4 OG0001160     2
    ##  5 OG0001161     2
    ##  6 OG0001162     2
    ##  7 OG0001165     2
    ##  8 OG0001166     2
    ##  9 OG0001167     2
    ## 10 OG0001168     2
    ## # ℹ 826 more rows
…
    ## 
    ##  Wilcoxon signed rank test with continuity correction
    ## 
    ## data:  rhizb_new2$F and rhizb_new2$M
    ## V = 262824, p-value = 0.3341
    ## alternative hypothesis: true location shift is not equal to 0

``` r
gene_count2("h") # 1074
```

    ## # A tibble: 1,074 × 2
    ##    Gene          n
    ##    <chr>     <int>
    ##  1 OG0001154     2
    ##  2 OG0001155     2
    ##  3 OG0001156     2
    ##  4 OG0001159     2
    ##  5 OG0001161     2
    ##  6 OG0001165     2
    ##  7 OG0001166     2
    ##  8 OG0001167     2
    ##  9 OG0001168     2
    ## 10 OG0001169     2
    ## # ℹ 1,064 more rows

``` r
# Check the pairs 
rhizobia_dnds2%>%
  filter(Pair=="h")
```

    ## # A tibble: 2,646 × 6
    ##    Species                          dnds Gene      Mutualist Pair  Transition
    ##    <chr>                           <dbl> <chr>     <chr>     <chr> <chr>     
    ##  1 Paraburkholderia_diazotrophica 0.0411 OG0001707 M         h     gain      
    ##  2 Paraburkholderia_caribensis    0.0928 OG0001709 F         h     gain      
    ##  3 Paraburkholderia_diazotrophica 0.102  OG0001724 M         h     gain      
    ##  4 Paraburkholderia_caribensis    0.0132 OG0001724 F         h     gain      
    ##  5 Paraburkholderia_diazotrophica 0.0473 OG0001725 M         h     gain      
    ##  6 Paraburkholderia_diazotrophica 0.0422 OG0001727 M         h     gain      
    ##  7 Paraburkholderia_diazotrophica 0.0618 OG0001736 M         h     gain      
    ##  8 Paraburkholderia_diazotrophica 0.0475 OG0001738 M         h     gain      
    ##  9 Paraburkholderia_caribensis    0.0238 OG0001738 F         h     gain      
    ## 10 Paraburkholderia_diazotrophica 0.0937 OG0001742 M         h     gain      
    ## # ℹ 2,636 more rows
…
``` r
# This looks like mutualists are higher? I need to go back and look at that Wilcoxon test results but if this is correct then that is helpful! Then it matches the plant! 

rhizobia_dnds2_plot2
```

    ## # A tibble: 18,376 × 7
    ##    Species                          dnds Gene   Mutualist Pair  Transition dummy
    ##    <chr>                           <dbl> <chr>  <chr>     <chr> <chr>      <chr>
    ##  1 Cupriavidus taiwanensis        0.0001 OG000… M         g     mutualism… test 
    ##  2 Paraburkholderia diazotrophica 0.0411 OG000… M         h     mutualism… test 
    ##  3 Mesorhizobium oceanicum        0.0229 OG000… F         e     mutualism… test 
    ##  4 Mesorhizobium temperatum       0.0334 OG000… M         e     mutualism… test 
    ##  5 Rhizobium tubonense            0.0387 OG000… F         f     mutualism… test 
    ##  6 Rhizobium gallicum             0.0163 OG000… M         f     mutualism… test 
    ##  7 Microvirga subterranea         0.0372 OG000… F         d     mutualism… test 
    ##  8 Microvirga vignae              0.0203 OG000… M         d     mutualism… test 
    ##  9 Bradyrhizobium icense          0.0209 OG000… M         b     mutualism… test 
    ## 10 Bradyrhizobium oligotrophicum  0.0224 OG000… F         b     mutualism… test 
    ## # ℹ 18,366 more rows
…
    ## Rows: 99 Columns: 2
    ## ── Column specification ────────────────────────────────────────────────────────
    ## Delimiter: ","
    ## chr (2): Gene, Genus
    ## 
    ## ℹ Use `spec()` to retrieve the full column specification for this data.
    ## ℹ Specify the column types or set `show_col_types = FALSE` to quiet this message.

``` r
symgenes # Now there is likely some overlap but the genes might be different in the different pairs so prob want to filter by pair! 
```

    ## # A tibble: 99 × 2
    ##    Gene      Genus        
    ##    <chr>     <chr>        
    ##  1 OG0002301 Azorrhizobium
    ##  2 OG0002527 Azorrhizobium
    ##  3 OG0002676 Azorrhizobium
    ##  4 OG0002850 Azorrhizobium
    ##  5 OG0002851 Azorrhizobium
    ##  6 OG0002852 Azorrhizobium
    ##  7 OG0002853 Azorrhizobium
    ##  8 OG0002897 Azorrhizobium
    ##  9 OG0002898 Azorrhizobium
    ## 10 OG0002899 Azorrhizobium
    ## # ℹ 89 more rows

``` r
symgenes2<-symgenes %>%
  distinct(Gene) # 33 genes total 
symgenes2
```

    ## # A tibble: 33 × 1
    ##    Gene     
    ##    <chr>    
    ##  1 OG0002301
    ##  2 OG0002527
    ##  3 OG0002676
    ##  4 OG0002850
    ##  5 OG0002851
    ##  6 OG0002852
    ##  7 OG0002853
    ##  8 OG0002897
    ##  9 OG0002898
    ## 10 OG0002899
    ## # ℹ 23 more rows

``` r
# Prep the data 
sym_rhiz <- rhizobia_dnds2 %>%
  filter(Gene %in% symgenes2$Gene)
sym_rhiz # 269 rows 
```

    ## # A tibble: 238 × 6
    ##    Species                         dnds Gene      Mutualist Pair  Transition
    ##    <chr>                          <dbl> <chr>     <chr>     <chr> <chr>     
    ##  1 Mesorhizobium_temperatum      0.0140 OG0002301 M         e     loss      
    ##  2 Azorhizobium_caulinodans      0.0391 OG0002301 M         c     gain      
    ##  3 Xanthobacter_autotrophicus    0.115  OG0002301 F         c     gain      
    ##  4 Microvirga_vignae             0.0700 OG0002301 M         d     gain      
    ##  5 Microvirga_subterranea        0.0302 OG0002301 F         d     gain      
    ##  6 Bradyrhizobium_icense         0.0149 OG0002301 M         b     loss      
    ##  7 Bradyrhizobium_oligotrophicum 0.0121 OG0002301 F         b     loss      
    ##  8 Mesorhizobium_oceanicum       0.0400 OG0002301 F         e     loss      
    ##  9 Rhizobium_tubonense           0.0303 OG0002301 F         f     loss      
    ## 10 Rhizobium_gallicum            0.0158 OG0002301 M         f     loss      
    ## # ℹ 228 more rows
…
    ## Adding missing grouping variables: `Pair`

``` r
sym_rhiz2 
```

    ## # A tibble: 81 × 5
    ## # Groups:   Pair [7]
    ##    Pair  Transition Gene            M       F
    ##    <chr> <chr>      <chr>       <dbl>   <dbl>
    ##  1 e     loss       OG0002301 0.0140  0.0400 
    ##  2 c     gain       OG0002301 0.0391  0.115  
    ##  3 d     gain       OG0002301 0.0700  0.0302 
    ##  4 b     loss       OG0002301 0.0149  0.0121 
    ##  5 f     loss       OG0002301 0.0158  0.0303 
    ##  6 f     loss       OG0002495 0.0432  0.0495 
    ##  7 c     gain       OG0002495 0.00201 0.0761 
    ##  8 d     gain       OG0002495 0.0349  0.335  
    ##  9 b     loss       OG0002495 0.0409  0.00115
    ## 10 e     loss       OG0002495 0.00136 0.00193
    ## # ℹ 71 more rows
…
# Genes under positive selection

``` r
rhizobia_dnds2 %>%
  filter(dnds>1) %>%
  distinct(Gene)
```

    ## # A tibble: 110 × 1
    ##    Gene     
    ##    <chr>    
    ##  1 OG0001760
    ##  2 OG0002037
    ##  3 OG0002096
    ##  4 OG0002239
    ##  5 OG0002460
    ##  6 OG0002504
    ##  7 OG0002519
    ##  8 OG0002618
    ##  9 OG0002676
    ## 10 OG0002731
    ## # ℹ 100 more rows
…
pos_genes_rhiz %>%
  filter(Pair=="g") 
```

    ## # A tibble: 45 × 7
    ##    Pair  Transition Gene           M      F  minus  Diff
    ##    <chr> <chr>      <chr>      <dbl>  <dbl>  <dbl> <dbl>
    ##  1 g     gain       OG0001230 4.72   3.77    0.942 0.942
    ##  2 g     gain       OG0005779 0.0001 1.50   -1.50  1.50 
    ##  3 g     gain       OG0005450 1.61   0.0252  1.59  1.59 
    ##  4 g     gain       OG0003318 0.0001 1.62   -1.61  1.61 
    ##  5 g     gain       OG0005861 1.64   0.0145  1.62  1.62 
    ##  6 g     gain       OG0004922 1.76   0.0384  1.72  1.72 
    ##  7 g     gain       OG0005875 0.0289 1.77   -1.74  1.74 
    ##  8 g     gain       OG0001510 0.0001 1.77   -1.77  1.77 
    ##  9 g     gain       OG0001440 4.40   6.19   -1.80  1.80 
    ## 10 g     gain       OG0003529 1.83   0.0103  1.82  1.82 
    ## # ℹ 35 more rows

``` r
# really need the upset r plot for this to see if all species are sharing the same genes under positive selection 
rhizobia_dnds_pos <- rhizobia_dnds2 %>%
  mutate(Pos=ifelse(dnds>1, 1, 0)) %>%
  dplyr::select(Species, Gene, Pos) %>%
  pivot_wider(names_from=Species, values_from=Pos) 

rhizobia_dnds2 %>%
  mutate(Pos=ifelse(dnds>1, 1, 0)) %>%
  filter(Pos==1) %>%
  distinct()
```

    ## # A tibble: 120 × 7
    ##    Species                      dnds Gene      Mutualist Pair  Transition   Pos
    ##    <chr>                       <dbl> <chr>     <chr>     <chr> <chr>      <dbl>
    ##  1 Cupriavidus_alkaliphilus     2.42 OG0001760 F         g     gain           1
    ##  2 Paraburkholderia_caribensis  8.47 OG0001760 F         h     gain           1
    ##  3 Microvirga_vignae            8.13 OG0002037 M         d     gain           1
    ##  4 Xanthobacter_autotrophicus   1.10 OG0002037 F         c     gain           1
    ##  5 Cupriavidus_taiwanensis      2.86 OG0002096 M         g     gain           1
    ##  6 Microvirga_vignae            5.58 OG0002239 M         d     gain           1
    ##  7 Mesorhizobium_temperatum     7.80 OG0002460 M         e     loss           1
    ##  8 Bradyrhizobium_icense        2.27 OG0002504 M         b     loss           1
    ##  9 Microvirga_vignae            1.56 OG0002519 M         d     gain           1
    ## 10 Paraburkholderia_caribensis  1.95 OG0002618 F         h     gain           1
    ## # ℹ 110 more rows
…
    ## New names:
    ## Rows: 810 Columns: 6
    ## ── Column specification
    ## ──────────────────────────────────────────────────────── Delimiter: "," chr
    ## (4): mutualist, gene, plasmid, symgenes dbl (2): ...1, dnds
    ## ℹ Use `spec()` to retrieve the full column specification for this data. ℹ
    ## Specify the column types or set `show_col_types = FALSE` to quiet this message.
    ## • `` -> `...1`

``` r
sinotree1 # 810 observations so 405 genes total 
```

    ## # A tibble: 810 × 6
    ##     ...1 mutualist    dnds gene      plasmid symgenes
    ##    <dbl> <chr>       <dbl> <chr>     <chr>   <chr>   
    ##  1     1 symbiotic  0.0707 OG0001182 chr     N       
    ##  2     2 freeliving 0.0710 OG0001182 chr     N       
    ##  3     3 symbiotic  0.0312 OG0001184 chr     N       
    ##  4     4 freeliving 0.0268 OG0001184 chr     N       
    ##  5     5 freeliving 0.111  OG0001185 chr     N       
    ##  6     6 symbiotic  0.110  OG0001185 chr     N       
    ##  7     7 freeliving 0.107  OG0001186 chr     N       
    ##  8     8 symbiotic  0.0732 OG0001186 chr     N       
    ##  9     9 freeliving 0.0513 OG0001188 chr     N       
    ## 10    10 symbiotic  0.0465 OG0001188 chr     N       
    ## # ℹ 800 more rows
…
    ## Rows: 130 Columns: 1
    ## ── Column specification ────────────────────────────────────────────────────────
    ## Delimiter: ","
    ## chr (1): psymB_codes
    ## 
    ## ℹ Use `spec()` to retrieve the full column specification for this data.
    ## ℹ Specify the column types or set `show_col_types = FALSE` to quiet this message.

``` r
psymB # 130 genes are in psymB 
```

    ## # A tibble: 130 × 1
    ##    psymB_codes
    ##    <chr>      
    ##  1 OG0001315  
    ##  2 OG0001316  
    ##  3 OG0001317  
    ##  4 OG0001318  
    ##  5 OG0001319  
    ##  6 OG0001320  
    ##  7 OG0001321  
    ##  8 OG0001322  
    ##  9 OG0001323  
    ## 10 OG0001324  
    ## # ℹ 120 more rows

``` r
# Make new column of data 
sinotree<-sinotree1%>%
  mutate(psymB=ifelse(gene %in% psymB$psymB_codes, "Y", "N"))
sinotree%>% 
  filter(psymB=="Y") # 140 rows 
```

    ## # A tibble: 140 × 7
    ##     ...1 mutualist    dnds gene      plasmid symgenes psymB
    ##    <dbl> <chr>       <dbl> <chr>     <chr>   <chr>    <chr>
    ##  1   193 freeliving 0.0164 OG0001315 pls     N        Y    
    ##  2   194 symbiotic  0.0207 OG0001315 pls     N        Y    
    ##  3   195 freeliving 0.0672 OG0001317 pls     N        Y    
    ##  4   196 symbiotic  0.0460 OG0001317 pls     N        Y    
    ##  5   197 freeliving 0.0247 OG0001318 pls     N        Y    
    ##  6   198 symbiotic  0.0001 OG0001318 pls     N        Y    
    ##  7   199 symbiotic  0.0248 OG0001319 pls     N        Y    
    ##  8   200 freeliving 0.0353 OG0001319 pls     N        Y    
    ##  9   201 freeliving 0.104  OG0001320 pls     N        Y    
    ## 10   202 symbiotic  0.0280 OG0001320 pls     N        Y    
    ## # ℹ 130 more rows

``` r
# How many genes? 
sinotree%>%
  filter(psymB=="Y") %>%
  group_by(gene) %>%
  tally() # 70 genes in psymB! 
```

    ## # A tibble: 70 × 2
    ##    gene          n
    ##    <chr>     <int>
    ##  1 OG0001315     2
    ##  2 OG0001317     2
    ##  3 OG0001318     2
    ##  4 OG0001319     2
    ##  5 OG0001320     2
    ##  6 OG0001321     2
    ##  7 OG0001322     2
    ##  8 OG0001323     2
    ##  9 OG0001324     2
    ## 10 OG0001325     2
    ## # ℹ 60 more rows
…
